{"@context":"https://www.w3.org/ns/activitystreams","id":"https://botsin.space/users/muffinista/followers?page=1","type":"OrderedCollectionPage","totalItems":4527,"next":"https://botsin.space/users/muffinista/followers?page=2","partOf":"https://botsin.space/users/muffinista/followers","orderedItems":["https://mastodon-belgium.be/users/jowouters","https://mastodon.cloud/users/katherine_montalto","https://voxdiva.poorabstraction.dev/users/corn","https://pkm.social/users/Social_Hermit","https://social.galacticcoders.com/users/galacticbot","https://mastodon.au/users/moiki","https://mastodon.social/users/rexi","https://mspsocial.net/users/bdunnette","https://hachyderm.io/users/ksenzee","https://mastodon.world/users/mattmaison","https://uff.rip/users/drayenim","https://climatejustice.global/users/S4F"]}